{
  "images" : [
    {
      "idiom" : "iphone",
      "details": "29x29",
      "scale" : "2x"
    },
    {
      "idiom" : "iphone",
      "details": "29x29",
      "scale" : "3x"
    },
    {
      "idiom" : "iphone",
      "details": "40x40",
      "scale" : "2x"
    },
    {
      "idiom" : "iphone",
      "details": "40x40",
      "scale" : "3x"
    },
    {
      "idiom" : "iphone",
      "details": "60x60",
      "scale" : "2x"
    },
    {
      "idiom" : "iphone",
      "details": "60x60",
      "scale" : "3x"
    }
  ],
  "info" : {
    "version" : 1,
    "author" : "xcode"
  }
}
